[
    {
        "page": 1,
        "extraction_method": "stream",
        "selection_id": "O1620298446505",
        "x1": 369.28710291137685,
        "x2": 581.2101072143554,
        "y1": 344.5627569961548,
        "y2": 611.3452624130249,
        "width": 211.9230043029785,
        "height": 266.7825054168701,
        "spec_index": 0
    }
]